…
어떻게 하면 모든 나라에 대해서 위 작업을 쉽게 할수 있을까?

Nested Data
-----------

위의 작업을 gapminder dataframe의 각각의 나라, 즉 행(row)들의 subset들에 대해 해야한다. 이것을 위해, nested data frame이라는 새로운 data structure가 필요하다. 이 data structure를 만드려면 nest() 함수를 쓰면 된다.

``` r
by_country <- gapminder %>%
  group_by(country, continent) %>%
  nest()
by_country
```

    ## # A tibble: 142 x 3
    ##        country continent              data
    ##         <fctr>    <fctr>            <list>
    ##  1 Afghanistan      Asia <tibble [12 x 4]>
    ##  2     Albania    Europe <tibble [12 x 4]>
    ##  3     Algeria    Africa <tibble [12 x 4]>
    ##  4      Angola    Africa <tibble [12 x 4]>
    ##  5   Argentina  Americas <tibble [12 x 4]>
    ##  6   Australia   Oceania <tibble [12 x 4]>
    ##  7     Austria    Europe <tibble [12 x 4]>
    ##  8     Bahrain      Asia <tibble [12 x 4]>
    ##  9  Bangladesh      Asia <tibble [12 x 4]>
    ## 10     Belgium    Europe <tibble [12 x 4]>
    ## # ... with 132 more rows
…
회귀분석 결과를 dataframe과 따로 저장하는것 보다, dataframe의 하나의 column에 저장하는 것이 낫다.

``` r
by_country <- by_country %>%
  mutate(model = map(data, country_model)) 
by_country
```

    ## # A tibble: 142 x 4
    ##        country continent              data    model
    ##         <fctr>    <fctr>            <list>   <list>
    ##  1 Afghanistan      Asia <tibble [12 x 4]> <S3: lm>
    ##  2     Albania    Europe <tibble [12 x 4]> <S3: lm>
    ##  3     Algeria    Africa <tibble [12 x 4]> <S3: lm>
    ##  4      Angola    Africa <tibble [12 x 4]> <S3: lm>
    ##  5   Argentina  Americas <tibble [12 x 4]> <S3: lm>
    ##  6   Australia   Oceania <tibble [12 x 4]> <S3: lm>
    ##  7     Austria    Europe <tibble [12 x 4]> <S3: lm>
    ##  8     Bahrain      Asia <tibble [12 x 4]> <S3: lm>
    ##  9  Bangladesh      Asia <tibble [12 x 4]> <S3: lm>
    ## 10     Belgium    Europe <tibble [12 x 4]> <S3: lm>
    ## # ... with 132 more rows
…
이렇게 하면 모든 관련된 objects들이 같이 저장되기 떄문에, filter나 arrange를 할 때, 따로따로 하여 sync할 필요 없이 한번에 할 수 있다.

``` r
by_country %>%
  filter(continent == "Europe")
```

    ## # A tibble: 30 x 4
    ##                   country continent              data    model
    ##                    <fctr>    <fctr>            <list>   <list>
    ##  1                Albania    Europe <tibble [12 x 4]> <S3: lm>
    ##  2                Austria    Europe <tibble [12 x 4]> <S3: lm>
    ##  3                Belgium    Europe <tibble [12 x 4]> <S3: lm>
    ##  4 Bosnia and Herzegovina    Europe <tibble [12 x 4]> <S3: lm>
    ##  5               Bulgaria    Europe <tibble [12 x 4]> <S3: lm>
    ##  6                Croatia    Europe <tibble [12 x 4]> <S3: lm>
    ##  7         Czech Republic    Europe <tibble [12 x 4]> <S3: lm>
    ##  8                Denmark    Europe <tibble [12 x 4]> <S3: lm>
    ##  9                Finland    Europe <tibble [12 x 4]> <S3: lm>
    ## 10                 France    Europe <tibble [12 x 4]> <S3: lm>
    ## # ... with 20 more rows

``` r
by_country %>%
  arrange(continent, country)
```

    ## # A tibble: 142 x 4
    ##                     country continent              data    model
    ##                      <fctr>    <fctr>            <list>   <list>
    ##  1                  Algeria    Africa <tibble [12 x 4]> <S3: lm>
    ##  2                   Angola    Africa <tibble [12 x 4]> <S3: lm>
    ##  3                    Benin    Africa <tibble [12 x 4]> <S3: lm>
    ##  4                 Botswana    Africa <tibble [12 x 4]> <S3: lm>
    ##  5             Burkina Faso    Africa <tibble [12 x 4]> <S3: lm>
    ##  6                  Burundi    Africa <tibble [12 x 4]> <S3: lm>
    ##  7                 Cameroon    Africa <tibble [12 x 4]> <S3: lm>
    ##  8 Central African Republic    Africa <tibble [12 x 4]> <S3: lm>
    ##  9                     Chad    Africa <tibble [12 x 4]> <S3: lm>
    ## 10                  Comoros    Africa <tibble [12 x 4]> <S3: lm>
    ## # ... with 132 more rows
…
이제 어떻게 하면 datframe list를 plotting 할수 있을까? 일단 unnest() 함수로 nested dataframe을 일반적인 dataframe으로 다시 바꿔보자.

``` r
resids <- unnest(by_country, resids)
resids
```

    ## # A tibble: 1,704 x 7
    ##        country continent  year lifeExp      pop gdpPercap       resid
    ##         <fctr>    <fctr> <int>   <dbl>    <int>     <dbl>       <dbl>
    ##  1 Afghanistan      Asia  1952  28.801  8425333  779.4453 -1.10629487
    ##  2 Afghanistan      Asia  1957  30.332  9240934  820.8530 -0.95193823
    ##  3 Afghanistan      Asia  1962  31.997 10267083  853.1007 -0.66358159
    ##  4 Afghanistan      Asia  1967  34.020 11537966  836.1971 -0.01722494
    ##  5 Afghanistan      Asia  1972  36.088 13079460  739.9811  0.67413170
    ##  6 Afghanistan      Asia  1977  38.438 14880372  786.1134  1.64748834
    ##  7 Afghanistan      Asia  1982  39.854 12881816  978.0114  1.68684499
    ##  8 Afghanistan      Asia  1987  40.822 13867957  852.3959  1.27820163
    ##  9 Afghanistan      Asia  1992  41.674 16317921  649.3414  0.75355828
    ## 10 Afghanistan      Asia  1997  41.763 22227415  635.3414 -0.53408508
    ## # ... with 1,694 more rows
…
``` r
class(glance(nz_mod))
```

    ## [1] "data.frame"

nested dataframe에 있는 model에 glance() 함수를 적용해보자.

``` r
by_country %>%
  mutate(glance = map(model, glance)) %>%
  unnest(glance)
```

    ## # A tibble: 142 x 16
    ##        country continent              data    model            resids
    ##         <fctr>    <fctr>            <list>   <list>            <list>
    ##  1 Afghanistan      Asia <tibble [12 x 4]> <S3: lm> <tibble [12 x 5]>
    ##  2     Albania    Europe <tibble [12 x 4]> <S3: lm> <tibble [12 x 5]>
    ##  3     Algeria    Africa <tibble [12 x 4]> <S3: lm> <tibble [12 x 5]>
    ##  4      Angola    Africa <tibble [12 x 4]> <S3: lm> <tibble [12 x 5]>
    ##  5   Argentina  Americas <tibble [12 x 4]> <S3: lm> <tibble [12 x 5]>
    ##  6   Australia   Oceania <tibble [12 x 4]> <S3: lm> <tibble [12 x 5]>
    ##  7     Austria    Europe <tibble [12 x 4]> <S3: lm> <tibble [12 x 5]>
    ##  8     Bahrain      Asia <tibble [12 x 4]> <S3: lm> <tibble [12 x 5]>
    ##  9  Bangladesh      Asia <tibble [12 x 4]> <S3: lm> <tibble [12 x 5]>
    ## 10     Belgium    Europe <tibble [12 x 4]> <S3: lm> <tibble [12 x 5]>
    ## # ... with 132 more rows, and 11 more variables: r.squared <dbl>,
    ## #   adj.r.squared <dbl>, sigma <dbl>, statistic <dbl>, p.value <dbl>,
    ## #   df <int>, logLik <dbl>, AIC <dbl>, BIC <dbl>, deviance <dbl>,
    ## #   df.residual <int>

unnest를 했지만, 여전히 list column이 남아았다. glance() 함수가 return하는 dataframe은 한개의 행으로 되어있다. 이러한 경우 unnest() 함수는 위와 같이 default로 실행된다. 왜냐하면 unnest를 할때, 처음에 nest를 할때 묶인 dataframe을 다시 풀어줘야 하는데, 이 dataframe의 row의 갯수와 unnest() 함수의 두번째 argument로 들어가는 list column의 원소인 dataframe의 row의 갯수가 같으면 list column이 없는 채로 unnest가 잘 되지만, 전자의 갯수가 후자의 갯수보다 적으면 unnest를 제대로 할수 없기 떄문이다. .drop = TRUE 옵션을 주면 문제가 해결된다.

``` r
glance <- by_country %>%
  mutate(glance = map(model, glance)) %>%
  unnest(glance, .drop = TRUE)
glance
```

    ## # A tibble: 142 x 13
    ##        country continent r.squared adj.r.squared     sigma  statistic
    ##         <fctr>    <fctr>     <dbl>         <dbl>     <dbl>      <dbl>
    ##  1 Afghanistan      Asia 0.9477123     0.9424835 1.2227880  181.24941
    ##  2     Albania    Europe 0.9105778     0.9016355 1.9830615  101.82901
    ##  3     Algeria    Africa 0.9851172     0.9836289 1.3230064  661.91709
    ##  4      Angola    Africa 0.8878146     0.8765961 1.4070091   79.13818
    ##  5   Argentina  Americas 0.9955681     0.9951249 0.2923072 2246.36635
    ##  6   Australia   Oceania 0.9796477     0.9776125 0.6206086  481.34586
    ##  7     Austria    Europe 0.9921340     0.9913474 0.4074094 1261.29629
    ##  8     Bahrain      Asia 0.9667398     0.9634138 1.6395865  290.65974
    ##  9  Bangladesh      Asia 0.9893609     0.9882970 0.9766908  929.92637
    ## 10     Belgium    Europe 0.9945406     0.9939946 0.2929025 1821.68840
    ## # ... with 132 more rows, and 7 more variables: p.value <dbl>, df <int>,
    ## #   logLik <dbl>, AIC <dbl>, BIC <dbl>, deviance <dbl>, df.residual <int>

이제 R^2를 기준으로 arragne를 하여 model을 평가해보자.

``` r
glance %>%
  arrange(r.squared)
```

    ## # A tibble: 142 x 13
    ##             country continent  r.squared adj.r.squared    sigma statistic
    ##              <fctr>    <fctr>      <dbl>         <dbl>    <dbl>     <dbl>
    ##  1           Rwanda    Africa 0.01715964  -0.081124401 6.558269 0.1745923
    ##  2         Botswana    Africa 0.03402340  -0.062574259 6.112177 0.3522177
    ##  3         Zimbabwe    Africa 0.05623196  -0.038144842 7.205431 0.5958240
    ##  4           Zambia    Africa 0.05983644  -0.034179918 4.528713 0.6364471
    ##  5        Swaziland    Africa 0.06821087  -0.024968046 6.644091 0.7320419
    ##  6          Lesotho    Africa 0.08485635  -0.006658011 5.933934 0.9272463
    ##  7    Cote d'Ivoire    Africa 0.28337240   0.211709644 3.925590 3.9542491
    ##  8     South Africa    Africa 0.31246865   0.243715518 4.744356 4.5447914
    ##  9           Uganda    Africa 0.34215382   0.276369202 3.187668 5.2011219
    ## 10 Congo, Dem. Rep.    Africa 0.34820278   0.283023054 2.429489 5.3421948
    ## # ... with 132 more rows, and 7 more variables: p.value <dbl>, df <int>,
    ## #   logLik <dbl>, AIC <dbl>, BIC <dbl>, deviance <dbl>, df.residual <int>
…
